<?xml version="1.0" standalone="no"?>
<!DOCTYPE svg PUBLIC "-//W3C//DTD SVG 1.1//EN" "http://www.w3.org/Graphics/SVG/1.1/DTD/svg11.dtd" >
<svg xmlns="http://www.w3.org/2000/svg">
<metadata>Generated by IcoMoon</metadata>
<defs>
<font id="icomoon" horiz-adv-x="1024">
<font-face units-per-em="1024" ascent="960" descent="-64" />
<missing-glyph horiz-adv-x="1024" />
<glyph unicode="&#x20;" horiz-adv-x="512" d="" />
<glyph unicode="&#xe900;" glyph-name="dashboard" d="M568.888 960h455.112v-341.333h-455.112v341.333zM0 960h455.112v-568.888h-455.112v568.888zM0 277.333h455.112v-341.333h-455.112v341.333zM568.888 504.888h455.112v-568.888h-455.112v568.888z" />
<glyph unicode="&#xe901;" glyph-name="meal" d="M568.888 960h455.112v-341.333h-455.112v341.333zM0 960h455.112v-568.888h-455.112v568.888zM0 277.333h455.112v-341.333h-455.112v341.333zM568.888 504.888h455.112v-568.888h-455.112v568.888z" />
<glyph unicode="&#xe902;" glyph-name="workout" d="M568.888 960h455.112v-341.333h-455.112v341.333zM0 960h455.112v-568.888h-455.112v568.888zM0 277.333h455.112v-341.333h-455.112v341.333zM568.888 504.888h455.112v-568.888h-455.112v568.888z" />
<glyph unicode="&#xe903;" glyph-name="supplement" d="M568.888 960h455.112v-341.333h-455.112v341.333zM0 960h455.112v-568.888h-455.112v568.888zM0 277.333h455.112v-341.333h-455.112v341.333zM568.888 504.888h455.112v-568.888h-455.112v568.888z" />
<glyph unicode="&#xe904;" glyph-name="weight" d="M568.888 960h455.112v-341.333h-455.112v341.333zM0 960h455.112v-568.888h-455.112v568.888zM0 277.333h455.112v-341.333h-455.112v341.333zM568.888 504.888h455.112v-568.888h-455.112v568.888z" />
<glyph unicode="&#xe905;" glyph-name="progress" d="M568.888 960h455.112v-341.333h-455.112v341.333zM0 960h455.112v-568.888h-455.112v568.888zM0 277.333h455.112v-341.333h-455.112v341.333zM568.888 504.888h455.112v-568.888h-455.112v568.888z" />
<glyph unicode="&#xe906;" glyph-name="settings" d="M568.888 960h455.112v-341.333h-455.112v341.333zM0 960h455.112v-568.888h-455.112v568.888zM0 277.333h455.112v-341.333h-455.112v341.333zM568.888 504.888h455.112v-568.888h-455.112v568.888z" />
<glyph unicode="&#xe907;" glyph-name="log-out" d="M568.888 960h455.112v-341.333h-455.112v341.333zM0 960h455.112v-568.888h-455.112v568.888zM0 277.333h455.112v-341.333h-455.112v341.333zM568.888 504.888h455.112v-568.888h-455.112v568.888z" />
</font></defs></svg>